43.0939	12.3666;
43.9061	12.9049;
42.7515	13.9655;
41.9164	13.4247;
41.9705	13.3991;
42.3542	14.4077;
43.5297	13.5207;
42.4687	14.204;
43.254	13.0149;
42.1934	14.3636;
43.3746	13.2158;
43.0956	12.37;
42.22	14.4469;
42.9505	12.6959;
42.8543	13.5887

............... =   15

n_agenti = 8