42.5311 12.5196;
42.4978 12.4767;
42.5517 12.6328;
42.8537 13.5603;
42.8551 13.5883;
43.0570 13.8489;
43.6075 13.4978;
43.7356 12.8347;
43.2102 13.0572;
43.2055 13.0557;
43.0794 13.4888;
43.2932 13.4554;
42.8052 13.9388;
42.7832 13.9514;
42.5163 14.1512;
42.4687 14.2040;
42.4443 14.2071;
42.8160 13.8554;
42.8032 13.9411;
42.9510 13.8832;
42.9543 13.8821


6;4;2;5;4   --->   21


viaggi 5