Viaggio  1,   Distanza  4533,   Tempo  478

               cliente Localita             dist. time priorita

            1    0    MONTERUBBIANO       0     0      0

            2    13    ALBA ADRIATICA       0     0      2

            3    9    SAN VITO LANCIANO       0     0      2

            4    11    CASALBORDINO       0     0      2

            5    16    CAMPOBASSO       0     0      2

            6    0    MONTERUBBIANO       0     0      0

Viaggio  2,   Distanza  1871,   Tempo  450

               cliente Localita             dist. time priorita

            1    0    MONTERUBBIANO       0     0      0

            2    18    PESCARA       0     0      2

            3    20    PESCARA       0     0      2

            4    14    PESCARA CENTRALE       0     0      2

            5    17    CITTA  SANT ANGELO       0     0      2

            6    0    MONTERUBBIANO       0     0      0

Viaggio  3,   Distanza  3434,   Tempo  429

               cliente Localita             dist. time priorita

            1    0    MONTERUBBIANO       0     0      0

            2    15    TREIA       0     0      2

            3    1    JESI       0     0      2

            4    3    ALBACINA       0     0      2

            5    2    GUALDO TADINO       0     0      2

            6    4    MAGIONE       0     0      2

            7    0    MONTERUBBIANO       0     0      0

Viaggio  4,   Distanza  1601,   Tempo  432

               cliente Localita             dist. time priorita

            1    0    MONTERUBBIANO       0     0      0

            2    19    CUPRA MARITTIMA       0     0      2

            3    22    CUPRAMARITTIMA       0     0      2

            4    12    PORTO D'ASCOLI       0     0      2

            5    7    SCERNE DI PINETO       0     0      2

            6    8    TERAMO       0     0      2

            7    21    TERAMO CONA       0     0      2

            8    6    ASCOLI PICENO       0     0      2

            9    0    MONTERUBBIANO       0     0      0

Viaggio  5,   Distanza  1000,   Tempo  208

               cliente Localita             dist. time priorita

            1    0    MONTERUBBIANO       0     0      0

            2    5    MACERATA       0     0      2

            3    10    CIVITANOVA MARCHE       0     0      2

            4    0    MONTERUBBIANO       0     0      0




Distanza Totale percorsa  :  12439
Tempo Totale impiegato  :  1997
